<svg width="44" height="38" viewBox="0 0 44 38" fill="none" xmlns="http://www.w3.org/2000/svg">
<path d="M9.99999 29.8279L0.585994 20.4139C-0.195006 19.6329 -0.195006 18.3669 0.585994 17.5859L9.99999 8.17188L12.829 10.9999L4.82899 18.9999L12.829 26.9999L9.99999 29.8279Z" fill="white"/>
<path d="M33.9946 29.8279L31.1656 26.9999L39.1656 18.9999L31.1656 10.9999L33.9946 8.17188L43.4086 17.5859C44.1896 18.3669 44.1896 19.6329 43.4086 20.4139L33.9946 29.8279Z" fill="white"/>
<rect x="15.569" y="36.4556" width="36.985" height="3.99999" transform="rotate(-75.954 15.569 36.4556)" fill="white"/>
</svg>
